﻿.. |img-1|      image:: Main/Images/manual_html_11cdfe72.png
.. :align: left

.. |img-2|      image:: Main/Images/manual_html_3c9c2593.png
.. :border: 0
.. :height: 21
.. :hspace: 9
.. :name: Grafik2
.. :width: 87

